Propensity Score - 1 PSM
…
# 模拟数据的真实PS值
z<-(x.Age-45)/15-(x.Age-45)^2/100+2*x.Gender

tps <- exp(z)/(1+exp(z)) # The true PS
tps_comp <- tps[complete.cases(data)]

smoke_comp <- Smoke[complete.cases(data)] %>% as.factor()

df <- tibble(
    True = tps_comp,
    Estimate = eps,  # 估计如此糟糕（就像 sin 函数一样），是因为我们通过二次方程生成 PS
    smoke= smoke_comp
)
df
#> # A tibble: 1,000 × 3
#>        True Estimate smoke
#>       <dbl>    <dbl> <fct>
#>  1  5.10e-1    0.276 1    
#>  2  5.21e-1    0.272 0    
#>  3  2.59e-2    0.197 0    
#>  4  1.76e-2    0.194 0    
#>  5  1.33e-9    0.127 0    
#>  6  3.83e-1    0.297 1    
#>  7  2.64e-1    0.310 0    
#>  8  4.28e-1    0.242 0    
#>  9 NA          0.396 0    
#> 10  5.23e-1    0.261 1    
#> # ℹ 990 more rows
…
